<svg xmlns="http://www.w3.org/2000/svg" xmlns:xlink="http://www.w3.org/1999/xlink" width="270" height="104.994" viewBox="0 0 270 104.994">
  <defs>
    <clipPath id="clip-path">
      <path id="Caminho_2634" data-name="Caminho 2634" d="M0,31.121H270V-73.873H0Z" transform="translate(0 73.873)" fill="none" clip-rule="evenodd"/>
    </clipPath>
  </defs>
  <g id="Grupo_133" data-name="Grupo 133" clip-path="url(#clip-path)">
    <path id="Caminho_2631" data-name="Caminho 2631" d="M72.027-38.582C85.448-25.16,93.83-10.285,94.778.145,91.165-7.543,84.83-16.371,76.5-24.7c-17.47-17.472-37.11-26.159-43.864-19.4-6.151,6.153.506,22.991,14.942,39.145Q45.2-7.086,42.862-9.418C23.833-28.447,14.936-50.4,22.989-58.456S53-57.612,72.027-38.582Z" transform="translate(8.434 79.117)" fill="#003874" fill-rule="evenodd"/>
    <path id="Caminho_2632" data-name="Caminho 2632" d="M76.9-45.781a119.477,119.477,0,0,1,15.1,18.369,104.877,104.877,0,0,0-8.916-10.128C61.584-59.048,35.154-67.487,24.058-56.391S21.4-18.864,42.908,2.643c21.234,21.234,47.265,29.728,58.6,19.263a18.562,18.562,0,0,1-2.546,3.185c-13.478,13.479-45.21,3.6-70.872-22.06S-7.449-54.363,6.03-67.843,51.241-71.444,76.9-45.781Z" transform="translate(0 73.873)" fill="#c4112f" fill-rule="evenodd"/>
    <path id="Caminho_2633" data-name="Caminho 2633" d="M86.908-22.87a25.882,25.882,0,0,1,1.545-8.977A21.445,21.445,0,0,1,92.921-39.2a21.315,21.315,0,0,1,7.1-4.969A23.417,23.417,0,0,1,109.539-46a30.705,30.705,0,0,1,6.431.627,31.338,31.338,0,0,1,5.678,1.8l-2.588,9.939a31.253,31.253,0,0,0-3.842-1.17,20.08,20.08,0,0,0-4.677-.5q-5.511,0-8.225,3.424A14.1,14.1,0,0,0,99.6-22.87q0,5.931,2.547,9.187t8.895,3.256a30.643,30.643,0,0,0,4.844-.416,20.66,20.66,0,0,0,4.76-1.336L122.4-1.991a29.112,29.112,0,0,1-5.428,1.586,35.738,35.738,0,0,1-7.182.669,27.036,27.036,0,0,1-10.356-1.8,19.507,19.507,0,0,1-7.141-4.885A19.057,19.057,0,0,1,88.2-13.724,31,31,0,0,1,86.908-22.87ZM139.872-.905H127.429V-44.833h12.443Zm1.17-56.621a6.831,6.831,0,0,1-2.213,5.387,7.615,7.615,0,0,1-5.22,1.963,7.614,7.614,0,0,1-5.219-1.963,6.831,6.831,0,0,1-2.213-5.387,6.829,6.829,0,0,1,2.213-5.387,7.607,7.607,0,0,1,5.219-1.963,7.608,7.608,0,0,1,5.22,1.963A6.829,6.829,0,0,1,141.042-57.527Zm35.343,34.992q0-5.763-2.59-9.228t-7.682-3.467q-1.671,0-3.09.125t-2.339.293v22.465a10.813,10.813,0,0,0,3.049,1.252,14.7,14.7,0,0,0,3.8.5Q176.385-10.593,176.385-22.535Zm12.693-.335a32.222,32.222,0,0,1-1.252,9.271,20.9,20.9,0,0,1-3.674,7.182,16.59,16.59,0,0,1-6.013,4.676A19.386,19.386,0,0,1,169.871-.07a22.3,22.3,0,0,1-4.844-.5,23.317,23.317,0,0,1-4.343-1.42V14.544H148.242V-43.329q1.669-.5,3.84-.961t4.552-.793q2.379-.335,4.844-.543t4.717-.209a26.972,26.972,0,0,1,9.687,1.629,19.924,19.924,0,0,1,7.183,4.592,19.7,19.7,0,0,1,4.467,7.224A27.757,27.757,0,0,1,189.079-22.87ZM212.146-9.591q1.838,0,3.508-.084a24.485,24.485,0,0,0,2.672-.25v-9.436q-.75-.168-2.254-.335a25.23,25.23,0,0,0-2.756-.166,24.645,24.645,0,0,0-3.3.209,8.634,8.634,0,0,0-2.715.793,4.666,4.666,0,0,0-1.838,1.586,4.427,4.427,0,0,0-.668,2.506q0,2.923,1.963,4.051A10.845,10.845,0,0,0,212.146-9.591Zm-1-36.412a28.792,28.792,0,0,1,9.186,1.254,14.254,14.254,0,0,1,5.888,3.592,13.189,13.189,0,0,1,3.131,5.678,28,28,0,0,1,.92,7.432v25.89q-2.673.584-7.433,1.377a71.449,71.449,0,0,1-11.524.793,36.508,36.508,0,0,1-7.726-.752A16.755,16.755,0,0,1,197.615-3.2a11.277,11.277,0,0,1-3.842-4.469,15.432,15.432,0,0,1-1.336-6.764,12.825,12.825,0,0,1,1.545-6.514,11.9,11.9,0,0,1,4.135-4.26,18.72,18.72,0,0,1,5.93-2.3,33.351,33.351,0,0,1,6.932-.709,39.352,39.352,0,0,1,4.3.209,19.088,19.088,0,0,1,3.047.543v-1.17a6.886,6.886,0,0,0-1.92-5.094q-1.921-1.921-6.681-1.92a42.439,42.439,0,0,0-6.264.459,26.886,26.886,0,0,0-5.344,1.293l-1.588-10.021q1.087-.333,2.715-.709t3.549-.668q1.921-.292,4.051-.5T211.144-46Z" transform="translate(36.613 77.663)" fill="#003874"/>
  </g>
</svg>
